{
  "project_info": {
    "project_number": "674231224643",
    "firebase_url": "https://mypictionis-aa603.firebaseio.com",
    "project_id": "mypictionis-aa603",
    "storage_bucket": "mypictionis-aa603.appspot.com"
  },
  "client": [
    {
      "client_info": {
        "mobilesdk_app_id": "1:674231224643:android:11d2f8fedf3b6754",
        "android_client_info": {
          "package_name": "com.example.jordan_pictionis.my_pictionis"
        }
      },
      "oauth_client": [
        {
          "client_id": "674231224643-c9j9rd01rqcj6mv6n5djrook55ek65go.apps.googleusercontent.com",
          "client_type": 1,
          "android_info": {
            "package_name": "com.example.jordan_pictionis.my_pictionis",
            "certificate_hash": "224df8c08ea15cfc536531a8c0d8c9b69495ecdc"
          }
        },
        {
          "client_id": "674231224643-4s80jd81h8m5shc81j16c210hhp6at44.apps.googleusercontent.com",
          "client_type": 3
        }
      ],
      "api_key": [
        {
          "current_key": "AIzaSyBf-RQi9ud2qS12Pb_BiKEZg-iXUvafFhU"
        }
      ],
      "services": {
        "analytics_service": {
          "status": 1
        },
        "appinvite_service": {
          "status": 2,
          "other_platform_oauth_client": [
            {
              "client_id": "674231224643-4s80jd81h8m5shc81j16c210hhp6at44.apps.googleusercontent.com",
              "client_type": 3
            }
          ]
        },
        "ads_service": {
          "status": 2
        }
      }
    }
  ],
  "configuration_version": "1"
}